…
df <- left_join(df_1, df_2, by='pn', 'year') %>%
              filter(!(unc_care == 'NA')) %>% # drop all observations that don't contain uncompensated care information
              mutate(state= coalesce(State, state), year= year.x) %>%
              distinct(pn, state, year, own_typ, unc_care, hosp_rev)
## I do not fully understand the behavior of left_join it creates multiple row, so I am just taking the unique values per PN and YEAR

df 
```

    # A tibble: 79,613 × 6
    # Rowwise: 
          pn unc_care hosp_rev state own_typ  year
       <int>    <dbl>    <dbl> <chr> <chr>   <int>
     1 10001     41.3     532. AL    other    2003
     2 10001     37.4     592. AL    other    2004
     3 10001     37.5     658. AL    other    2005
     4 10001     41.7     714. AL    other    2006
     5 10001     90.8    1117. AL    other    2010
     6 10001    109.     1208. AL    other    2011
     7 10001    119.     1263. AL    other    2012
     8 10001    116.     1306. AL    other    2013
     9 10001    129.     1451. AL    other    2014
    10 10001    111.     1551. AL    other    2015
    # … with 79,603 more rows
…
